Exercise-09
…
 names(d)

 [1] "Species"             "Taxonomic_group"     "Social_learning"    
 [4] "Research_effort"     "ECV"                 "Group_size"         
 [7] "Gestation"           "Weaning"             "Longevity"          
[10] "Sex_maturity"        "Body_mass"           "Maternal_investment"
[13] "Repro_lifespan"     

(s <- d %>% drop_na(ECV, Group_size) %>%
     mutate(logECV = log(ECV), logGS = log(Group_size)))

# A tibble: 151 × 15
   Species      Taxonomic_group Social_learning Research_effort   ECV Group_size
   <chr>        <chr>                     <dbl>           <dbl> <dbl>      <dbl>
 1 Allenopithe… Catarrhini                    0               6 58.0       40   
 2 Alouatta_be… Platyrrhini                   0              15 52.8        7.4 
 3 Alouatta_ca… Platyrrhini                   0              45 52.6        8.9 
 4 Alouatta_gu… Platyrrhini                   0              37 51.7        7.4 
 5 Alouatta_pa… Platyrrhini                   3              79 49.9       13.1 
 6 Alouatta_pi… Platyrrhini                   0              25 51.1        5.5 
 7 Alouatta_se… Platyrrhini                   0              82 55.2        7.9 
 8 Aotus_azarai Platyrrhini                   0              22 20.7        4.1 
 9 Aotus_trivi… Platyrrhini                   0              58 16.8        3.15
10 Arctocebus_… Strepsirhini                  0               1  6.92       1   
# ℹ 141 more rows
# ℹ 9 more variables: Gestation <dbl>, Weaning <dbl>, Longevity <dbl>,
#   Sex_maturity <dbl>, Body_mass <dbl>, Maternal_investment <dbl>,
#   Repro_lifespan <dbl>, logECV <dbl>, logGS <dbl>
…
 names(d)

 [1] "Species"             "Taxonomic_group"     "Social_learning"    
 [4] "Research_effort"     "ECV"                 "Group_size"         
 [7] "Gestation"           "Weaning"             "Longevity"          
[10] "Sex_maturity"        "Body_mass"           "Maternal_investment"
[13] "Repro_lifespan"     

(s <- d %>% drop_na(ECV, Group_size) %>%
     mutate(logECV = log(ECV), logGS = log(Group_size)))

# A tibble: 151 × 15
   Species      Taxonomic_group Social_learning Research_effort   ECV Group_size
   <chr>        <chr>                     <dbl>           <dbl> <dbl>      <dbl>
 1 Allenopithe… Catarrhini                    0               6 58.0       40   
 2 Alouatta_be… Platyrrhini                   0              15 52.8        7.4 
 3 Alouatta_ca… Platyrrhini                   0              45 52.6        8.9 
 4 Alouatta_gu… Platyrrhini                   0              37 51.7        7.4 
 5 Alouatta_pa… Platyrrhini                   3              79 49.9       13.1 
 6 Alouatta_pi… Platyrrhini                   0              25 51.1        5.5 
 7 Alouatta_se… Platyrrhini                   0              82 55.2        7.9 
 8 Aotus_azarai Platyrrhini                   0              22 20.7        4.1 
 9 Aotus_trivi… Platyrrhini                   0              58 16.8        3.15
10 Arctocebus_… Strepsirhini                  0               1  6.92       1   
# ℹ 141 more rows
# ℹ 9 more variables: Gestation <dbl>, Weaning <dbl>, Longevity <dbl>,
#   Sex_maturity <dbl>, Body_mass <dbl>, Maternal_investment <dbl>,
#   Repro_lifespan <dbl>, logECV <dbl>, logGS <dbl>
…
 names(d)

 [1] "Species"             "Taxonomic_group"     "Social_learning"    
 [4] "Research_effort"     "ECV"                 "Group_size"         
 [7] "Gestation"           "Weaning"             "Longevity"          
[10] "Sex_maturity"        "Body_mass"           "Maternal_investment"
[13] "Repro_lifespan"     

(s <- d %>% drop_na(ECV, Group_size) %>%
     mutate(logECV = log(ECV), logGS = log(Group_size)))

# A tibble: 151 × 15
   Species      Taxonomic_group Social_learning Research_effort   ECV Group_size
   <chr>        <chr>                     <dbl>           <dbl> <dbl>      <dbl>
 1 Allenopithe… Catarrhini                    0               6 58.0       40   
 2 Alouatta_be… Platyrrhini                   0              15 52.8        7.4 
 3 Alouatta_ca… Platyrrhini                   0              45 52.6        8.9 
 4 Alouatta_gu… Platyrrhini                   0              37 51.7        7.4 
 5 Alouatta_pa… Platyrrhini                   3              79 49.9       13.1 
 6 Alouatta_pi… Platyrrhini                   0              25 51.1        5.5 
 7 Alouatta_se… Platyrrhini                   0              82 55.2        7.9 
 8 Aotus_azarai Platyrrhini                   0              22 20.7        4.1 
 9 Aotus_trivi… Platyrrhini                   0              58 16.8        3.15
10 Arctocebus_… Strepsirhini                  0               1  6.92       1   
# ℹ 141 more rows
# ℹ 9 more variables: Gestation <dbl>, Weaning <dbl>, Longevity <dbl>,
#   Sex_maturity <dbl>, Body_mass <dbl>, Maternal_investment <dbl>,
#   Repro_lifespan <dbl>, logECV <dbl>, logGS <dbl>
…
